127.0.0.1 - - [04/Jan/2024:10:18:00 +0530] "GET / HTTP/1.1" 404 751
127.0.0.1 - - [04/Jan/2024:10:37:09 +0530] "GET / HTTP/1.1" 404 751
0:0:0:0:0:0:0:1 - - [04/Jan/2024:10:37:09 +0530] "GET /EmpWebapp/loging.html HTTP/1.1" 200 493
0:0:0:0:0:0:0:1 - - [04/Jan/2024:10:37:18 +0530] "GET /EmpWebapp/loging.html?email=HR&password=123 HTTP/1.1" 200 493
0:0:0:0:0:0:0:1 - - [04/Jan/2024:10:38:40 +0530] "GET /EmpWebapp/loging.html?email=HR&password=123 HTTP/1.1" 304 -
0:0:0:0:0:0:0:1 - - [04/Jan/2024:10:38:50 +0530] "GET /EmpWebapp/loging.html?email=HR&password=HR HTTP/1.1" 200 493
0:0:0:0:0:0:0:1 - - [04/Jan/2024:10:39:04 +0530] "GET /EmpWebapp/loging.html?email=HR&password=HR HTTP/1.1" 304 -
0:0:0:0:0:0:0:1 - - [04/Jan/2024:10:40:29 +0530] "GET /EmpWebapp/loging.html?email=HR&password=HR HTTP/1.1" 200 506
0:0:0:0:0:0:0:1 - - [04/Jan/2024:10:40:32 +0530] "GET /EmpWebapp/loging.html?email=HR&password=HR HTTP/1.1" 304 -
0:0:0:0:0:0:0:1 - - [04/Jan/2024:10:40:42 +0530] "GET /EmpWebapp/LoginServlet?email=HR&password=HR HTTP/1.1" 500 8
127.0.0.1 - - [04/Jan/2024:10:43:48 +0530] "GET / HTTP/1.1" 404 751
0:0:0:0:0:0:0:1 - - [04/Jan/2024:10:43:49 +0530] "GET /EmpWebapp/loging.html HTTP/1.1" 200 508
0:0:0:0:0:0:0:1 - - [04/Jan/2024:10:43:58 +0530] "GET /EmpWebapp/LoginServlet?emailId=HR&password=HR HTTP/1.1" 200 120
0:0:0:0:0:0:0:1 - - [04/Jan/2024:10:44:07 +0530] "GET /EmpWebapp/LoginServlet?emailId=HR&password=hr HTTP/1.1" 200 116
0:0:0:0:0:0:0:1 - - [04/Jan/2024:10:56:17 +0530] "GET /EmpWebapp/LoginServlet?emailId=HR&password=hr HTTP/1.1" 500 87
0:0:0:0:0:0:0:1 - - [04/Jan/2024:10:56:20 +0530] "GET /EmpWebapp/LoginServlet?emailId=HR&password=hr HTTP/1.1" 500 87
0:0:0:0:0:0:0:1 - - [04/Jan/2024:10:56:31 +0530] "GET /EmpWebapp/LoginServlet?emailId=HR&password=hr HTTP/1.1" 500 87
0:0:0:0:0:0:0:1 - - [04/Jan/2024:10:56:31 +0530] "GET /EmpWebapp/LoginServlet?emailId=HR&password=hr HTTP/1.1" 500 87
0:0:0:0:0:0:0:1 - - [04/Jan/2024:10:56:31 +0530] "GET /EmpWebapp/LoginServlet?emailId=HR&password=hr HTTP/1.1" 500 87
0:0:0:0:0:0:0:1 - - [04/Jan/2024:10:56:31 +0530] "GET /EmpWebapp/LoginServlet?emailId=HR&password=hr HTTP/1.1" 500 87
0:0:0:0:0:0:0:1 - - [04/Jan/2024:10:56:32 +0530] "GET /EmpWebapp/LoginServlet?emailId=HR&password=hr HTTP/1.1" 500 87
127.0.0.1 - - [04/Jan/2024:10:56:52 +0530] "GET / HTTP/1.1" 404 751
0:0:0:0:0:0:0:1 - - [04/Jan/2024:10:56:52 +0530] "GET /EmpWebapp/loging.html HTTP/1.1" 200 522
0:0:0:0:0:0:0:1 - - [04/Jan/2024:10:57:00 +0530] "POST /EmpWebapp/LoginServlet HTTP/1.1" 200 103
0:0:0:0:0:0:0:1 - - [04/Jan/2024:10:57:06 +0530] "POST /EmpWebapp/LoginServlet HTTP/1.1" 500 87
0:0:0:0:0:0:0:1 - - [04/Jan/2024:10:57:28 +0530] "GET /EmpWebapp/LoginServlet HTTP/1.1" 500 8
0:0:0:0:0:0:0:1 - - [04/Jan/2024:10:57:30 +0530] "GET /EmpWebapp/loging.html HTTP/1.1" 304 -
0:0:0:0:0:0:0:1 - - [04/Jan/2024:10:57:38 +0530] "POST /EmpWebapp/LoginServlet HTTP/1.1" 500 87
0:0:0:0:0:0:0:1 - - [04/Jan/2024:10:57:59 +0530] "GET /EmpWebapp/LoginServlet HTTP/1.1" 500 8
0:0:0:0:0:0:0:1 - - [04/Jan/2024:10:58:01 +0530] "GET /EmpWebapp/LoginServlet HTTP/1.1" 500 8
0:0:0:0:0:0:0:1 - - [04/Jan/2024:10:58:02 +0530] "GET /EmpWebapp/loging.html HTTP/1.1" 304 -
0:0:0:0:0:0:0:1 - - [04/Jan/2024:10:58:09 +0530] "POST /EmpWebapp/LoginServlet HTTP/1.1" 200 638
0:0:0:0:0:0:0:1 - - [04/Jan/2024:11:43:45 +0530] "GET /EmpWebapp/loging.html HTTP/1.1" 304 -
0:0:0:0:0:0:0:1 - - [04/Jan/2024:11:43:53 +0530] "POST /EmpWebapp/LoginServlet HTTP/1.1" 200 103
0:0:0:0:0:0:0:1 - - [04/Jan/2024:11:53:23 +0530] "GET /EmpWebapp/loging.html HTTP/1.1" 304 -
0:0:0:0:0:0:0:1 - - [04/Jan/2024:11:53:32 +0530] "POST /EmpWebapp/LoginServlet HTTP/1.1" 200 211
0:0:0:0:0:0:0:1 - - [04/Jan/2024:11:53:34 +0530] "GET /EmpWebapp/LogoutServlet HTTP/1.1" 200 64
0:0:0:0:0:0:0:1 - - [04/Jan/2024:11:53:36 +0530] "GET /EmpWebapp/Login.html HTTP/1.1" 404 775
0:0:0:0:0:0:0:1 - - [04/Jan/2024:11:53:58 +0530] "GET /EmpWebapp/Login.html HTTP/1.1" 404 775
0:0:0:0:0:0:0:1 - - [04/Jan/2024:11:53:59 +0530] "GET /EmpWebapp/Login.html HTTP/1.1" 404 775
0:0:0:0:0:0:0:1 - - [04/Jan/2024:11:54:09 +0530] "POST /EmpWebapp/LoginServlet HTTP/1.1" 200 211
0:0:0:0:0:0:0:1 - - [04/Jan/2024:11:54:11 +0530] "GET /EmpWebapp/LogoutServlet HTTP/1.1" 200 65
0:0:0:0:0:0:0:1 - - [04/Jan/2024:11:54:13 +0530] "GET /EmpWebapp/Loging.html HTTP/1.1" 404 776
0:0:0:0:0:0:0:1 - - [04/Jan/2024:11:54:28 +0530] "GET /EmpWebapp/Loging.html HTTP/1.1" 404 776
0:0:0:0:0:0:0:1 - - [04/Jan/2024:11:54:29 +0530] "GET /EmpWebapp/Loging.html HTTP/1.1" 404 776
0:0:0:0:0:0:0:1 - - [04/Jan/2024:11:54:32 +0530] "GET /EmpWebapp/Loging.html HTTP/1.1" 404 776
0:0:0:0:0:0:0:1 - - [04/Jan/2024:11:56:39 +0530] "POST /EmpWebapp/LoginServlet HTTP/1.1" 200 211
0:0:0:0:0:0:0:1 - - [04/Jan/2024:11:56:41 +0530] "GET /EmpWebapp/LogoutServlet HTTP/1.1" 200 65
127.0.0.1 - - [04/Jan/2024:13:15:38 +0530] "GET / HTTP/1.1" 404 751
0:0:0:0:0:0:0:1 - - [04/Jan/2024:13:15:38 +0530] "GET /EmpWebapp/loging.html HTTP/1.1" 304 -
0:0:0:0:0:0:0:1 - - [04/Jan/2024:13:15:45 +0530] "POST /EmpWebapp/LoginServlet HTTP/1.1" 200 211
0:0:0:0:0:0:0:1 - - [04/Jan/2024:13:16:00 +0530] "POST /EmpWebapp/LoginServlet HTTP/1.1" 500 8
0:0:0:0:0:0:0:1 - - [04/Jan/2024:13:16:43 +0530] "POST /EmpWebapp/LoginServlet HTTP/1.1" 500 8
0:0:0:0:0:0:0:1 - - [04/Jan/2024:13:19:06 +0530] "GET /EmpWebapp/LoginServlet HTTP/1.1" 500 8
0:0:0:0:0:0:0:1 - - [04/Jan/2024:13:19:19 +0530] "POST /EmpWebapp/LoginServlet HTTP/1.1" 500 8
127.0.0.1 - - [04/Jan/2024:13:20:15 +0530] "GET / HTTP/1.1" 404 751
0:0:0:0:0:0:0:1 - - [04/Jan/2024:13:20:26 +0530] "POST /EmpWebapp/LoginServlet HTTP/1.1" 500 8
0:0:0:0:0:0:0:1 - - [04/Jan/2024:13:21:34 +0530] "GET /EmpWebapp/loging.html HTTP/1.1" 200 522
0:0:0:0:0:0:0:1 - - [04/Jan/2024:13:21:34 +0530] "GET /favicon.ico HTTP/1.1" 404 762
0:0:0:0:0:0:0:1 - - [04/Jan/2024:13:21:47 +0530] "POST /EmpWebapp/LoginServlet HTTP/1.1" 500 8
0:0:0:0:0:0:0:1 - - [04/Jan/2024:13:22:12 +0530] "POST /EmpWebapp/LoginServlet HTTP/1.1" 500 8
0:0:0:0:0:0:0:1 - - [04/Jan/2024:13:26:59 +0530] "POST /EmpWebapp/LoginServlet HTTP/1.1" 500 8
0:0:0:0:0:0:0:1 - - [04/Jan/2024:13:27:02 +0530] "GET /EmpWebapp/LoginServlet HTTP/1.1" 500 8
